^C:\USERS\ANTTONJOK\DOCUMENTS\OOP-PROGRAMMING-PROJECT_CPP\OOP-PROGRAMMING-PROJECT_CPP\OOP-PROGRAMMING-PROJECT_CPP\CHARACTER.CPP
/c /ZI /nologo /W3 /WX- /sdl /Od /D _MBCS /Gm /EHsc /RTC1 /MDd /GS /fp:precise /Zc:wchar_t /Zc:forScope /Zc:inline /Fo"X64\DEBUG\\" /Fd"X64\DEBUG\VC140.PDB" /Gd /TP C:\USERS\ANTTONJOK\DOCUMENTS\OOP-PROGRAMMING-PROJECT_CPP\OOP-PROGRAMMING-PROJECT_CPP\OOP-PROGRAMMING-PROJECT_CPP\CHARACTER.CPP
^C:\USERS\ANTTONJOK\DOCUMENTS\OOP-PROGRAMMING-PROJECT_CPP\OOP-PROGRAMMING-PROJECT_CPP\OOP-PROGRAMMING-PROJECT_CPP\DEVKIT.CPP
/c /ZI /nologo /W3 /WX- /sdl /Od /D _MBCS /Gm /EHsc /RTC1 /MDd /GS /fp:precise /Zc:wchar_t /Zc:forScope /Zc:inline /Fo"X64\DEBUG\\" /Fd"X64\DEBUG\VC140.PDB" /Gd /TP C:\USERS\ANTTONJOK\DOCUMENTS\OOP-PROGRAMMING-PROJECT_CPP\OOP-PROGRAMMING-PROJECT_CPP\OOP-PROGRAMMING-PROJECT_CPP\DEVKIT.CPP
^C:\USERS\ANTTONJOK\DOCUMENTS\OOP-PROGRAMMING-PROJECT_CPP\OOP-PROGRAMMING-PROJECT_CPP\OOP-PROGRAMMING-PROJECT_CPP\EVENT.CPP
/c /ZI /nologo /W3 /WX- /sdl /Od /D _MBCS /Gm /EHsc /RTC1 /MDd /GS /fp:precise /Zc:wchar_t /Zc:forScope /Zc:inline /Fo"X64\DEBUG\\" /Fd"X64\DEBUG\VC140.PDB" /Gd /TP C:\USERS\ANTTONJOK\DOCUMENTS\OOP-PROGRAMMING-PROJECT_CPP\OOP-PROGRAMMING-PROJECT_CPP\OOP-PROGRAMMING-PROJECT_CPP\EVENT.CPP
^C:\USERS\ANTTONJOK\DOCUMENTS\OOP-PROGRAMMING-PROJECT_CPP\OOP-PROGRAMMING-PROJECT_CPP\OOP-PROGRAMMING-PROJECT_CPP\EVENTMANAGER.CPP
/c /ZI /nologo /W3 /WX- /sdl /Od /D _MBCS /Gm /EHsc /RTC1 /MDd /GS /fp:precise /Zc:wchar_t /Zc:forScope /Zc:inline /Fo"X64\DEBUG\\" /Fd"X64\DEBUG\VC140.PDB" /Gd /TP C:\USERS\ANTTONJOK\DOCUMENTS\OOP-PROGRAMMING-PROJECT_CPP\OOP-PROGRAMMING-PROJECT_CPP\OOP-PROGRAMMING-PROJECT_CPP\EVENTMANAGER.CPP
^C:\USERS\ANTTONJOK\DOCUMENTS\OOP-PROGRAMMING-PROJECT_CPP\OOP-PROGRAMMING-PROJECT_CPP\OOP-PROGRAMMING-PROJECT_CPP\GAMEOBJECT.CPP
/c /ZI /nologo /W3 /WX- /sdl /Od /D _MBCS /Gm /EHsc /RTC1 /MDd /GS /fp:precise /Zc:wchar_t /Zc:forScope /Zc:inline /Fo"X64\DEBUG\\" /Fd"X64\DEBUG\VC140.PDB" /Gd /TP C:\USERS\ANTTONJOK\DOCUMENTS\OOP-PROGRAMMING-PROJECT_CPP\OOP-PROGRAMMING-PROJECT_CPP\OOP-PROGRAMMING-PROJECT_CPP\GAMEOBJECT.CPP
^C:\USERS\ANTTONJOK\DOCUMENTS\OOP-PROGRAMMING-PROJECT_CPP\OOP-PROGRAMMING-PROJECT_CPP\OOP-PROGRAMMING-PROJECT_CPP\ITEM.CPP
/c /ZI /nologo /W3 /WX- /sdl /Od /D _MBCS /Gm /EHsc /RTC1 /MDd /GS /fp:precise /Zc:wchar_t /Zc:forScope /Zc:inline /Fo"X64\DEBUG\\" /Fd"X64\DEBUG\VC140.PDB" /Gd /TP C:\USERS\ANTTONJOK\DOCUMENTS\OOP-PROGRAMMING-PROJECT_CPP\OOP-PROGRAMMING-PROJECT_CPP\OOP-PROGRAMMING-PROJECT_CPP\ITEM.CPP
^C:\USERS\ANTTONJOK\DOCUMENTS\OOP-PROGRAMMING-PROJECT_CPP\OOP-PROGRAMMING-PROJECT_CPP\OOP-PROGRAMMING-PROJECT_CPP\MAINGAME.CPP
/c /ZI /nologo /W3 /WX- /sdl /Od /D _MBCS /Gm /EHsc /RTC1 /MDd /GS /fp:precise /Zc:wchar_t /Zc:forScope /Zc:inline /Fo"X64\DEBUG\\" /Fd"X64\DEBUG\VC140.PDB" /Gd /TP C:\USERS\ANTTONJOK\DOCUMENTS\OOP-PROGRAMMING-PROJECT_CPP\OOP-PROGRAMMING-PROJECT_CPP\OOP-PROGRAMMING-PROJECT_CPP\MAINGAME.CPP
^C:\USERS\ANTTONJOK\DOCUMENTS\OOP-PROGRAMMING-PROJECT_CPP\OOP-PROGRAMMING-PROJECT_CPP\OOP-PROGRAMMING-PROJECT_CPP\MARKET.CPP
/c /ZI /nologo /W3 /WX- /sdl /Od /D _MBCS /Gm /EHsc /RTC1 /MDd /GS /fp:precise /Zc:wchar_t /Zc:forScope /Zc:inline /Fo"X64\DEBUG\\" /Fd"X64\DEBUG\VC140.PDB" /Gd /TP C:\USERS\ANTTONJOK\DOCUMENTS\OOP-PROGRAMMING-PROJECT_CPP\OOP-PROGRAMMING-PROJECT_CPP\OOP-PROGRAMMING-PROJECT_CPP\MARKET.CPP
^C:\USERS\ANTTONJOK\DOCUMENTS\OOP-PROGRAMMING-PROJECT_CPP\OOP-PROGRAMMING-PROJECT_CPP\OOP-PROGRAMMING-PROJECT_CPP\SOURCE.CPP
/c /ZI /nologo /W3 /WX- /sdl /Od /D _MBCS /Gm /EHsc /RTC1 /MDd /GS /fp:precise /Zc:wchar_t /Zc:forScope /Zc:inline /Fo"X64\DEBUG\\" /Fd"X64\DEBUG\VC140.PDB" /Gd /TP C:\USERS\ANTTONJOK\DOCUMENTS\OOP-PROGRAMMING-PROJECT_CPP\OOP-PROGRAMMING-PROJECT_CPP\OOP-PROGRAMMING-PROJECT_CPP\SOURCE.CPP
^C:\USERS\ANTTONJOK\DOCUMENTS\VISUAL STUDIO 2015\OOP-PROGRAMMING-PROJECT_CPP\OOP-PROGRAMMING-PROJECT_CPP\OOP-PROGRAMMING-PROJECT_CPP\CHARACTER.CPP
/c /ZI /nologo /W3 /WX- /sdl /Od /D _MBCS /Gm /EHsc /RTC1 /MDd /GS /fp:precise /Zc:wchar_t /Zc:forScope /Zc:inline /Fo"X64\DEBUG\\" /Fd"X64\DEBUG\VC140.PDB" /Gd /TP C:\USERS\ANTTONJOK\DOCUMENTS\VISUAL STUDIO 2015\OOP-PROGRAMMING-PROJECT_CPP\OOP-PROGRAMMING-PROJECT_CPP\OOP-PROGRAMMING-PROJECT_CPP\CHARACTER.CPP
^C:\USERS\ANTTONJOK\DOCUMENTS\VISUAL STUDIO 2015\OOP-PROGRAMMING-PROJECT_CPP\OOP-PROGRAMMING-PROJECT_CPP\OOP-PROGRAMMING-PROJECT_CPP\DEVKIT.CPP
/c /ZI /nologo /W3 /WX- /sdl /Od /D _MBCS /Gm /EHsc /RTC1 /MDd /GS /fp:precise /Zc:wchar_t /Zc:forScope /Zc:inline /Fo"X64\DEBUG\\" /Fd"X64\DEBUG\VC140.PDB" /Gd /TP C:\USERS\ANTTONJOK\DOCUMENTS\VISUAL STUDIO 2015\OOP-PROGRAMMING-PROJECT_CPP\OOP-PROGRAMMING-PROJECT_CPP\OOP-PROGRAMMING-PROJECT_CPP\DEVKIT.CPP
^C:\USERS\ANTTONJOK\DOCUMENTS\VISUAL STUDIO 2015\OOP-PROGRAMMING-PROJECT_CPP\OOP-PROGRAMMING-PROJECT_CPP\OOP-PROGRAMMING-PROJECT_CPP\EVENT.CPP
/c /ZI /nologo /W3 /WX- /sdl /Od /D _MBCS /Gm /EHsc /RTC1 /MDd /GS /fp:precise /Zc:wchar_t /Zc:forScope /Zc:inline /Fo"X64\DEBUG\\" /Fd"X64\DEBUG\VC140.PDB" /Gd /TP C:\USERS\ANTTONJOK\DOCUMENTS\VISUAL STUDIO 2015\OOP-PROGRAMMING-PROJECT_CPP\OOP-PROGRAMMING-PROJECT_CPP\OOP-PROGRAMMING-PROJECT_CPP\EVENT.CPP
^C:\USERS\ANTTONJOK\DOCUMENTS\VISUAL STUDIO 2015\OOP-PROGRAMMING-PROJECT_CPP\OOP-PROGRAMMING-PROJECT_CPP\OOP-PROGRAMMING-PROJECT_CPP\EVENTMANAGER.CPP
/c /ZI /nologo /W3 /WX- /sdl /Od /D _MBCS /Gm /EHsc /RTC1 /MDd /GS /fp:precise /Zc:wchar_t /Zc:forScope /Zc:inline /Fo"X64\DEBUG\\" /Fd"X64\DEBUG\VC140.PDB" /Gd /TP C:\USERS\ANTTONJOK\DOCUMENTS\VISUAL STUDIO 2015\OOP-PROGRAMMING-PROJECT_CPP\OOP-PROGRAMMING-PROJECT_CPP\OOP-PROGRAMMING-PROJECT_CPP\EVENTMANAGER.CPP
^C:\USERS\ANTTONJOK\DOCUMENTS\VISUAL STUDIO 2015\OOP-PROGRAMMING-PROJECT_CPP\OOP-PROGRAMMING-PROJECT_CPP\OOP-PROGRAMMING-PROJECT_CPP\GAMEOBJECT.CPP
/c /ZI /nologo /W3 /WX- /sdl /Od /D _MBCS /Gm /EHsc /RTC1 /MDd /GS /fp:precise /Zc:wchar_t /Zc:forScope /Zc:inline /Fo"X64\DEBUG\\" /Fd"X64\DEBUG\VC140.PDB" /Gd /TP C:\USERS\ANTTONJOK\DOCUMENTS\VISUAL STUDIO 2015\OOP-PROGRAMMING-PROJECT_CPP\OOP-PROGRAMMING-PROJECT_CPP\OOP-PROGRAMMING-PROJECT_CPP\GAMEOBJECT.CPP
^C:\USERS\ANTTONJOK\DOCUMENTS\VISUAL STUDIO 2015\OOP-PROGRAMMING-PROJECT_CPP\OOP-PROGRAMMING-PROJECT_CPP\OOP-PROGRAMMING-PROJECT_CPP\ITEM.CPP
/c /ZI /nologo /W3 /WX- /sdl /Od /D _MBCS /Gm /EHsc /RTC1 /MDd /GS /fp:precise /Zc:wchar_t /Zc:forScope /Zc:inline /Fo"X64\DEBUG\\" /Fd"X64\DEBUG\VC140.PDB" /Gd /TP C:\USERS\ANTTONJOK\DOCUMENTS\VISUAL STUDIO 2015\OOP-PROGRAMMING-PROJECT_CPP\OOP-PROGRAMMING-PROJECT_CPP\OOP-PROGRAMMING-PROJECT_CPP\ITEM.CPP
^C:\USERS\ANTTONJOK\DOCUMENTS\VISUAL STUDIO 2015\OOP-PROGRAMMING-PROJECT_CPP\OOP-PROGRAMMING-PROJECT_CPP\OOP-PROGRAMMING-PROJECT_CPP\MAINGAME.CPP
/c /ZI /nologo /W3 /WX- /sdl /Od /D _MBCS /Gm /EHsc /RTC1 /MDd /GS /fp:precise /Zc:wchar_t /Zc:forScope /Zc:inline /Fo"X64\DEBUG\\" /Fd"X64\DEBUG\VC140.PDB" /Gd /TP C:\USERS\ANTTONJOK\DOCUMENTS\VISUAL STUDIO 2015\OOP-PROGRAMMING-PROJECT_CPP\OOP-PROGRAMMING-PROJECT_CPP\OOP-PROGRAMMING-PROJECT_CPP\MAINGAME.CPP
^C:\USERS\ANTTONJOK\DOCUMENTS\VISUAL STUDIO 2015\OOP-PROGRAMMING-PROJECT_CPP\OOP-PROGRAMMING-PROJECT_CPP\OOP-PROGRAMMING-PROJECT_CPP\MARKET.CPP
/c /ZI /nologo /W3 /WX- /sdl /Od /D _MBCS /Gm /EHsc /RTC1 /MDd /GS /fp:precise /Zc:wchar_t /Zc:forScope /Zc:inline /Fo"X64\DEBUG\\" /Fd"X64\DEBUG\VC140.PDB" /Gd /TP C:\USERS\ANTTONJOK\DOCUMENTS\VISUAL STUDIO 2015\OOP-PROGRAMMING-PROJECT_CPP\OOP-PROGRAMMING-PROJECT_CPP\OOP-PROGRAMMING-PROJECT_CPP\MARKET.CPP
^C:\USERS\ANTTONJOK\DOCUMENTS\VISUAL STUDIO 2015\OOP-PROGRAMMING-PROJECT_CPP\OOP-PROGRAMMING-PROJECT_CPP\OOP-PROGRAMMING-PROJECT_CPP\SOURCE.CPP
/c /ZI /nologo /W3 /WX- /sdl /Od /D _MBCS /Gm /EHsc /RTC1 /MDd /GS /fp:precise /Zc:wchar_t /Zc:forScope /Zc:inline /Fo"X64\DEBUG\\" /Fd"X64\DEBUG\VC140.PDB" /Gd /TP C:\USERS\ANTTONJOK\DOCUMENTS\VISUAL STUDIO 2015\OOP-PROGRAMMING-PROJECT_CPP\OOP-PROGRAMMING-PROJECT_CPP\OOP-PROGRAMMING-PROJECT_CPP\SOURCE.CPP
