^C:\USERS\ANTTONJOK\DOCUMENTS\VISUAL STUDIO 2015\OOP-PROGRAMMING-PROJECT_CPP\OOP-PROGRAMMING-PROJECT_CPP\OOP-PROGRAMMING-PROJECT_CPP\X64\DEBUG\CHARACTER.OBJ|C:\USERS\ANTTONJOK\DOCUMENTS\VISUAL STUDIO 2015\OOP-PROGRAMMING-PROJECT_CPP\OOP-PROGRAMMING-PROJECT_CPP\OOP-PROGRAMMING-PROJECT_CPP\X64\DEBUG\DEVKIT.OBJ|C:\USERS\ANTTONJOK\DOCUMENTS\VISUAL STUDIO 2015\OOP-PROGRAMMING-PROJECT_CPP\OOP-PROGRAMMING-PROJECT_CPP\OOP-PROGRAMMING-PROJECT_CPP\X64\DEBUG\EVENT.OBJ|C:\USERS\ANTTONJOK\DOCUMENTS\VISUAL STUDIO 2015\OOP-PROGRAMMING-PROJECT_CPP\OOP-PROGRAMMING-PROJECT_CPP\OOP-PROGRAMMING-PROJECT_CPP\X64\DEBUG\EVENTMANAGER.OBJ|C:\USERS\ANTTONJOK\DOCUMENTS\VISUAL STUDIO 2015\OOP-PROGRAMMING-PROJECT_CPP\OOP-PROGRAMMING-PROJECT_CPP\OOP-PROGRAMMING-PROJECT_CPP\X64\DEBUG\GAMEOBJECT.OBJ|C:\USERS\ANTTONJOK\DOCUMENTS\VISUAL STUDIO 2015\OOP-PROGRAMMING-PROJECT_CPP\OOP-PROGRAMMING-PROJECT_CPP\OOP-PROGRAMMING-PROJECT_CPP\X64\DEBUG\ITEM.OBJ|C:\USERS\ANTTONJOK\DOCUMENTS\VISUAL STUDIO 2015\OOP-PROGRAMMING-PROJECT_CPP\OOP-PROGRAMMING-PROJECT_CPP\OOP-PROGRAMMING-PROJECT_CPP\X64\DEBUG\MAINGAME.OBJ|C:\USERS\ANTTONJOK\DOCUMENTS\VISUAL STUDIO 2015\OOP-PROGRAMMING-PROJECT_CPP\OOP-PROGRAMMING-PROJECT_CPP\OOP-PROGRAMMING-PROJECT_CPP\X64\DEBUG\MARKET.OBJ|C:\USERS\ANTTONJOK\DOCUMENTS\VISUAL STUDIO 2015\OOP-PROGRAMMING-PROJECT_CPP\OOP-PROGRAMMING-PROJECT_CPP\OOP-PROGRAMMING-PROJECT_CPP\X64\DEBUG\SOURCE.OBJ
C:\USERS\ANTTONJOK\DOCUMENTS\VISUAL STUDIO 2015\OOP-PROGRAMMING-PROJECT_CPP\OOP-PROGRAMMING-PROJECT_CPP\X64\DEBUG\OOP-PROGRAMMING-PROJECT_CPP.ILK
C:\USERS\ANTTONJOK\DOCUMENTS\VISUAL STUDIO 2015\OOP-PROGRAMMING-PROJECT_CPP\OOP-PROGRAMMING-PROJECT_CPP\X64\DEBUG\OOP-PROGRAMMING-PROJECT_CPP.EXE
C:\USERS\ANTTONJOK\DOCUMENTS\VISUAL STUDIO 2015\OOP-PROGRAMMING-PROJECT_CPP\OOP-PROGRAMMING-PROJECT_CPP\X64\DEBUG\OOP-PROGRAMMING-PROJECT_CPP.PDB
